{
  "type": "panel",
  "name": "Maurice Event Definitions",
  "id": "grafana-maurice-event-definitions",

  "info": {
    "description": "Event Definition List for Maurice",
    "author": {
      "name": "Maurice Labs",
      "url": "https://grafana.com"
    },
    "keywords": ["maurice", "event", "definition", "panel"],
    "logos": {
      "small": "src/img/clock_panel_logo.svg",
      "large": "src/img/clock_panel_logo.svg"
    },
    "links": [
      {"name": "Project site", "url": "https://github.com/grafana/clock-panel"},
      {"name": "MIT License", "url": "https://github.com/grafana/clock-panel/blob/master/LICENSE"}
    ],
    "screenshots": [
      {"name": "Showcase", "path": "src/img/screenshot-showcase.png"},
      {"name": "Options", "path": "src/img/screenshot-clock-options.png"}
    ],
    "version": "0.0.9",
    "updated": "2017-03-18"
  },

  "dependencies": {
    "grafanaVersion": "3.x.x",
    "plugins": [ ]
  }
}
